Exercise 2/ARM code/top.vcd
$date
	Sun Jul 04 09:18:34 2021
$end
$version
	Icarus Verilog
$end
$timescale
	1s
$end
$scope module testbench $end
$var wire 32 ! WriteData [31:0] $end
$var wire 1 " MemWrite $end
$var wire 32 # DataAdr [31:0] $end
$var reg 1 $ clk $end
$var reg 1 % reset $end
$scope module dut $end
$var wire 1 $ clk $end
$var wire 1 % reset $end
$var wire 32 & WriteData [31:0] $end
$var wire 32 ' ReadData [31:0] $end
$var wire 32 ( PC [31:0] $end
$var wire 1 " MemWrite $end
$var wire 32 ) Instr [31:0] $end
$var wire 32 * DataAdr [31:0] $end
$scope module arm $end
$var wire 1 $ clk $end
$var wire 1 % reset $end
$var wire 32 + WriteData [31:0] $end
$var wire 1 , RegWrite $end
$var wire 2 - RegSrc [1:0] $end
$var wire 32 . ReadData [31:0] $end
$var wire 1 / PCSrc $end
$var wire 32 0 PC [31:0] $end
$var wire 1 1 MemtoReg $end
$var wire 1 " MemWrite $end
$var wire 32 2 Instr [31:0] $end
$var wire 2 3 ImmSrc [1:0] $end
$var wire 1 4 ByteSrc $end
$var wire 1 5 ALUSrc $end
$var wire 32 6 ALUResult [31:0] $end
$var wire 4 7 ALUFlags [3:0] $end
$var wire 3 8 ALUControl [2:0] $end
$scope module c $end
$var wire 20 9 Instr [31:12] $end
$var wire 1 $ clk $end
$var wire 1 % reset $end
$var wire 1 , RegWrite $end
$var wire 1 : RegW $end
$var wire 2 ; RegSrc [1:0] $end
$var wire 1 / PCSrc $end
$var wire 1 < PCS $end
$var wire 1 1 MemtoReg $end
$var wire 1 " MemWrite $end
$var wire 1 = MemW $end
$var wire 2 > ImmSrc [1:0] $end
$var wire 2 ? FlagW [1:0] $end
$var wire 1 4 ByteSrc $end
$var wire 1 5 ALUSrc $end
$var wire 4 @ ALUFlags [3:0] $end
$var wire 3 A ALUControl [2:0] $end
$scope module cl $end
$var wire 4 B Cond [3:0] $end
$var wire 2 C FlagWrite [1:0] $end
$var wire 1 " MemWrite $end
$var wire 1 / PCSrc $end
$var wire 1 , RegWrite $end
$var wire 1 $ clk $end
$var wire 1 % reset $end
$var wire 1 : RegW $end
$var wire 1 < PCS $end
$var wire 1 = MemW $end
$var wire 4 D Flags [3:0] $end
$var wire 2 E FlagW [1:0] $end
$var wire 1 F CondEx $end
$var wire 4 G ALUFlags [3:0] $end
$scope module cc $end
$var wire 4 H Cond [3:0] $end
$var wire 4 I Flags [3:0] $end
$var wire 1 J ge $end
$var wire 1 K zero $end
$var wire 1 L overflow $end
$var wire 1 M neg $end
$var wire 1 N carry $end
$var reg 1 F CondEx $end
$upscope $end
$scope module flagreg0 $end
$var wire 1 $ clk $end
$var wire 2 O d [1:0] $end
$var wire 1 P en $end
$var wire 1 % reset $end
$var reg 2 Q q [1:0] $end
$upscope $end
$scope module flagreg1 $end
$var wire 1 $ clk $end
$var wire 2 R d [1:0] $end
$var wire 1 S en $end
$var wire 1 % reset $end
$var reg 2 T q [1:0] $end
$upscope $end
$upscope $end
$scope module dec $end
$var wire 6 U Funct [5:0] $end
$var wire 2 V Op [1:0] $end
$var wire 1 < PCS $end
$var wire 4 W Rd [3:0] $end
$var wire 1 : RegW $end
$var wire 2 X RegSrc [1:0] $end
$var wire 1 1 MemtoReg $end
$var wire 1 = MemW $end
$var wire 2 Y ImmSrc [1:0] $end
$var wire 1 4 ByteSrc $end
$var wire 1 Z Branch $end
$var wire 1 5 ALUSrc $end
$var wire 1 [ ALUOp $end
$var reg 3 \ ALUControl [2:0] $end
$var reg 2 ] FlagW [1:0] $end
$var reg 11 ^ controls [10:0] $end
$upscope $end
$upscope $end
$scope module dp $end
$var wire 3 _ ALUControl [2:0] $end
$var wire 1 5 ALUSrc $end
$var wire 1 4 ByteSrc $end
$var wire 2 ` ImmSrc [1:0] $end
$var wire 1 1 MemtoReg $end
$var wire 1 / PCSrc $end
$var wire 2 a RegSrc [1:0] $end
$var wire 1 , RegWrite $end
$var wire 1 $ clk $end
$var wire 1 % reset $end
$var wire 32 b WriteData [31:0] $end
$var wire 32 c SrcBB [31:0] $end
$var wire 32 d SrcB [31:0] $end
$var wire 32 e SrcA [31:0] $end
$var wire 32 f Result [31:0] $end
$var wire 32 g ReadData [31:0] $end
$var wire 4 h RA2 [3:0] $end
$var wire 4 i RA1 [3:0] $end
$var wire 32 j PCPlus8 [31:0] $end
$var wire 32 k PCPlus4 [31:0] $end
$var wire 32 l PCNext [31:0] $end
$var wire 32 m PC [31:0] $end
$var wire 32 n Instr [31:0] $end
$var wire 32 o FinalResult [31:0] $end
$var wire 32 p ExtImm [31:0] $end
$var wire 32 q ByteResult [31:0] $end
$var wire 32 r ALUResult [31:0] $end
$var wire 4 s ALUFlags [3:0] $end
$scope module alu $end
$var wire 3 t ALUControl [2:0] $end
$var wire 1 u carry $end
$var wire 1 v overflow $end
$var wire 1 w zero $end
$var wire 33 x sum [32:0] $end
$var wire 1 y neg $end
$var wire 32 z b [31:0] $end
$var wire 32 { a [31:0] $end
$var wire 4 | ALUFlags [3:0] $end
$var reg 32 } Result [31:0] $end
$upscope $end
$scope module byteC $end
$var wire 1 4 enable $end
$var wire 32 ~ Result [31:0] $end
$var wire 32 !" BytePosition [31:0] $end
$var reg 32 "" ByteResult [31:0] $end
$upscope $end
$scope module byteMuxAlu $end
$var wire 32 #" d1 [31:0] $end
$var wire 1 4 s $end
$var wire 32 $" y [31:0] $end
$var wire 32 %" d0 [31:0] $end
$upscope $end
$scope module byteMuxResult $end
$var wire 32 &" d1 [31:0] $end
$var wire 1 4 s $end
$var wire 32 '" y [31:0] $end
$var wire 32 (" d0 [31:0] $end
$upscope $end
$scope module ext $end
$var wire 2 )" ImmSrc [1:0] $end
$var wire 24 *" Instr [23:0] $end
$var reg 32 +" ExtImm [31:0] $end
$upscope $end
$scope module pcadd1 $end
$var wire 32 ," b [31:0] $end
$var wire 32 -" y [31:0] $end
$var wire 32 ." a [31:0] $end
$upscope $end
$scope module pcadd2 $end
$var wire 32 /" a [31:0] $end
$var wire 32 0" b [31:0] $end
$var wire 32 1" y [31:0] $end
$upscope $end
$scope module pcmux $end
$var wire 32 2" d0 [31:0] $end
$var wire 32 3" d1 [31:0] $end
$var wire 1 / s $end
$var wire 32 4" y [31:0] $end
$upscope $end
$scope module pcreg $end
$var wire 1 $ clk $end
$var wire 32 5" d [31:0] $end
$var wire 1 % reset $end
$var reg 32 6" q [31:0] $end
$upscope $end
$scope module ra1mux $end
$var wire 4 7" d0 [3:0] $end
$var wire 4 8" d1 [3:0] $end
$var wire 1 9" s $end
$var wire 4 :" y [3:0] $end
$upscope $end
$scope module ra2mux $end
$var wire 4 ;" d0 [3:0] $end
$var wire 4 <" d1 [3:0] $end
$var wire 1 =" s $end
$var wire 4 >" y [3:0] $end
$upscope $end
$scope module resmux $end
$var wire 32 ?" d0 [31:0] $end
$var wire 1 1 s $end
$var wire 32 @" y [31:0] $end
$var wire 32 A" d1 [31:0] $end
$upscope $end
$scope module rf $end
$var wire 1 $ clk $end
$var wire 32 B" r15 [31:0] $end
$var wire 4 C" ra1 [3:0] $end
$var wire 4 D" ra2 [3:0] $end
$var wire 4 E" wa3 [3:0] $end
$var wire 32 F" wd3 [31:0] $end
$var wire 1 , we3 $end
$var wire 32 G" rd2 [31:0] $end
$var wire 32 H" rd1 [31:0] $end
$upscope $end
$scope module srcbmux $end
$var wire 32 I" d0 [31:0] $end
$var wire 32 J" d1 [31:0] $end
$var wire 1 5 s $end
$var wire 32 K" y [31:0] $end
$upscope $end
$upscope $end
$upscope $end
$scope module dmem $end
$var wire 32 L" a [31:0] $end
$var wire 1 $ clk $end
$var wire 32 M" rd [31:0] $end
$var wire 32 N" wd [31:0] $end
$var wire 1 " we $end
$upscope $end
$scope module imem $end
$var wire 32 O" a [31:0] $end
$var wire 32 P" rd [31:0] $end
$upscope $end
$upscope $end
$upscope $end
$enddefinitions $end
#0
$dumpvars
b11100000010011110000000000001111 P"
b0 O"
b1000 N"
bx M"
b0 L"
b1000 K"
b1111 J"
b1000 I"
b1000 H"
b1000 G"
b0 F"
b0 E"
b1111 D"
b1111 C"
b1000 B"
bx A"
b0 @"
b0 ?"
b1111 >"
0="
b0 <"
b1111 ;"
b1111 :"
09"
b1111 8"
b1111 7"
b0 6"
b100 5"
b100 4"
b0 3"
b100 2"
b1000 1"
b100 0"
b100 /"
b0 ."
b100 -"
b100 ,"
b1111 +"
b10011110000000000001111 *"
b0 )"
b0 ("
b0 '"
bx &"
b1000 %"
b1000 $"
b0 #"
bx ""
b1111 !"
b0 ~
b0 }
b100 |
b1000 {
b1000 z
0y
b0 x
1w
0v
0u
b1 t
b100 s
b0 r
bx q
b1111 p
b0 o
b11100000010011110000000000001111 n
b0 m
b100 l
b100 k
b1000 j
b1111 i
b1111 h
bx g
b0 f
b1000 e
b1000 d
b1000 c
b1000 b
b0 a
b0 `
b1 _
b10010 ^
b0 ]
b1 \
1[
0Z
b0 Y
b0 X
b0 W
b0 V
b100 U
b0 T
0S
b1 R
b0 Q
0P
b0 O
0N
0M
0L
0K
1J
b0 I
b1110 H
b100 G
1F
b0 E
b0 D
b0 C
b1110 B
b1 A
b100 @
b0 ?
b0 >
0=
0<
b0 ;
1:
b11100000010011110000 9
b1 8
b100 7
b0 6
05
04
b0 3
b11100000010011110000000000001111 2
01
b0 0
0/
bx .
b0 -
1,
b1000 +
b0 *
b11100000010011110000000000001111 )
b0 (
bx '
b1000 &
1%
1$
b0 #
0"
b1000 !
$end
#5
0$
#10
1$
#15
0$
#20
1$
#22
0%
#25
0$
#30
b0 O
0u
0y
15
b0 8
b0 A
b0 \
b0 _
b0 t
b1010010 ^
b11111111 o
b11111111 '"
b11111111 3"
b11111111 F"
b11111111 p
b11111111 !"
b11111111 +"
b11111111 J"
b0 i
b0 :"
b0 C"
b101000 U
b1 W
b0 R
b11111111 f
b11111111 ~
b11111111 ("
b11111111 @"
b11111111 c
b11111111 z
b11111111 $"
b100000000001000011111111 *"
b1 E"
b1 <"
b0 7"
b11100010100000000001 9
b0 7
b0 @
b0 G
b0 s
b0 |
0w
b11111111 #
b11111111 *
b11111111 6
b11111111 r
b11111111 }
b11111111 ?"
b11111111 L"
b11111111 d
b11111111 %"
b11111111 K"
b11100010100000000001000011111111 )
b11100010100000000001000011111111 2
b11100010100000000001000011111111 n
b11100010100000000001000011111111 P"
b11111111 x
b0 e
b0 {
b0 H"
b1100 !
b1100 &
b1100 +
b1100 b
b1100 G"
b1100 I"
b1100 N"
b1000 l
b1000 4"
b1000 5"
b1100 j
b1100 1"
b1100 B"
b1000 k
b1000 -"
b1000 /"
b1000 2"
b100 (
b100 0
b100 m
b100 ."
b100 6"
b100 O"
1$
#35
0$
#40
b111111110 o
b111111110 '"
b111111110 3"
b111111110 F"
b111111110 f
b111111110 ~
b111111110 ("
b111111110 @"
b11111111 c
b11111111 z
b11111111 $"
b111111110 #
b111111110 *
b111111110 6
b111111110 r
b111111110 }
b111111110 ?"
b111111110 L"
05
b11111111 d
b11111111 %"
b11111111 K"
b111111110 x
b11111111 e
b11111111 {
b11111111 H"
b10010 ^
b1 p
b1 !"
b1 +"
b1 J"
b1 h
b1 >"
b1 D"
b1 i
b1 :"
b1 C"
b1000 U
b10 W
b100000010010000000000001 *"
b10 E"
b10 <"
b1 ;"
b1 7"
b11100000100000010010 9
b11100000100000010010000000000001 )
b11100000100000010010000000000001 2
b11100000100000010010000000000001 n
b11100000100000010010000000000001 P"
b11111111 !
b11111111 &
b11111111 +
b11111111 b
b11111111 G"
b11111111 I"
b11111111 N"
b1100 l
b1100 4"
b1100 5"
b10000 j
b10000 1"
b10000 B"
b1100 k
b1100 -"
b1100 /"
b1100 2"
b1000 (
b1000 0
b1000 m
b1000 ."
b1000 6"
b1000 O"
1$
#45
0$
#50
b0 O
b0 R
0u
b0 7
b0 @
b0 G
b0 s
b0 |
0y
bx o
bx '"
bx 3"
bx F"
b11000100 c
b11000100 z
b11000100 $"
1="
bx f
bx ~
bx ("
bx @"
0,
1"
b11000100 d
b11000100 %"
b11000100 K"
b11000100 #
b11000100 *
b11000100 6
b11000100 r
b11000100 }
b11000100 ?"
b11000100 L"
b10 -
b10 ;
b10 X
b10 a
b1 3
b1 >
b1 Y
b1 `
b1 )"
15
11
0:
1=
0[
b111111110 !
b111111110 &
b111111110 +
b111111110 b
b111111110 G"
b111111110 I"
b111111110 N"
b11000100 x
b0 e
b0 {
b0 H"
b0 8
b0 A
b0 \
b0 _
b0 t
b10011101000 ^
b11000100 p
b11000100 !"
b11000100 +"
b11000100 J"
b10 h
b10 >"
b10 D"
b0 i
b0 :"
b0 C"
b1 V
b11000 U
b100000000010000011000100 *"
b100 ;"
b0 7"
b11100101100000000010 9
b11100101100000000010000011000100 )
b11100101100000000010000011000100 2
b11100101100000000010000011000100 n
b11100101100000000010000011000100 P"
b10000 l
b10000 4"
b10000 5"
b10100 j
b10100 1"
b10100 B"
b10000 k
b10000 -"
b10000 /"
b10000 2"
b1100 (
b1100 0
b1100 m
b1100 ."
b1100 6"
b1100 O"
1$
#55
0$
#60
0="
1,
0"
b110 8
b110 A
b110 \
b110 _
b110 t
b1001101 c
b1001101 z
b1001101 $"
b10110010 #
b10110010 *
b10110010 6
b10110010 r
b10110010 }
b10110010 ?"
b10110010 L"
b0 -
b0 ;
b0 X
b0 a
b0 3
b0 >
b0 Y
b0 `
b0 )"
01
1:
0=
1[
b1001101 d
b1001101 %"
b1001101 K"
bx !
bx &
bx +
bx b
bx G"
bx I"
bx N"
b101001100 x
b11111111 e
b11111111 {
b11111111 H"
b1010010 ^
b1001101 p
b1001101 !"
b1001101 +"
b1001101 J"
b1101 h
b1101 >"
b1101 D"
b1 i
b1 :"
b1 C"
b0 V
b100010 U
b11 W
b1000010011000001001101 *"
b11 E"
b11 <"
b1101 ;"
b1 7"
b11100010001000010011 9
b10110010 o
b10110010 '"
b10110010 3"
b10110010 F"
b11100010001000010011000001001101 )
b11100010001000010011000001001101 2
b11100010001000010011000001001101 n
b11100010001000010011000001001101 P"
b10100 l
b10100 4"
b10100 5"
b10110010 f
b10110010 ~
b10110010 ("
b10110010 @"
b11000 j
b11000 1"
b11000 B"
b10100 k
b10100 -"
b10100 /"
b10100 2"
b10000 (
b10000 0
b10000 m
b10000 ."
b10000 6"
b10000 O"
bx '
bx .
bx g
bx A"
bx M"
1$
#65
0$
#70
b10010 o
b10010 '"
b10010 3"
b10010 F"
b0 R
b10010 f
b10010 ~
b10010 ("
b10010 @"
b11111 c
b11111 z
b11111 $"
b0 7
b0 @
b0 G
b0 s
b0 |
0w
b10010 #
b10010 *
b10010 6
b10010 r
b10010 }
b10010 ?"
b10010 L"
b11111 d
b11111 %"
b11111 K"
b11100 !
b11100 &
b11100 +
b11100 b
b11100 G"
b11100 I"
b11100 N"
b11010001 x
b10110010 e
b10110010 {
b10110010 H"
b10 8
b10 A
b10 \
b10 _
b10 t
b11111 p
b11111 !"
b11111 +"
b11111 J"
b1111 h
b1111 >"
b1111 D"
b11 i
b11 :"
b11 C"
b100000 U
b100 W
b110100000000011111 *"
b100 E"
b100 <"
b1111 ;"
b11 7"
b11100010000000110100 9
b11100010000000110100000000011111 )
b11100010000000110100000000011111 2
b11100010000000110100000000011111 n
b11100010000000110100000000011111 P"
b11000 l
b11000 4"
b11000 5"
b11100 j
b11100 1"
b11100 B"
b11000 k
b11000 -"
b11000 /"
b11000 2"
b10100 (
b10100 0
b10100 m
b10100 ."
b10100 6"
b10100 O"
1$
#75
0$
#80
b111111110 '
b111111110 .
b111111110 g
b111111110 A"
b111111110 M"
b11000100 o
b11000100 '"
b11000100 3"
b11000100 F"
b11000100 x
b11000100 f
b11000100 ~
b11000100 ("
b11000100 @"
b10010 c
b10010 z
b10010 $"
b11000100 #
b11000100 *
b11000100 6
b11000100 r
b11000100 }
b11000100 ?"
b11000100 L"
05
b10010 d
b10010 %"
b10010 K"
b0 8
b0 A
b0 \
b0 _
b0 t
b10010 ^
b100 p
b100 !"
b100 +"
b100 J"
b100 h
b100 >"
b100 D"
b1000 U
b101 W
b100000110101000000000100 *"
b101 E"
b101 <"
b100 ;"
b11100000100000110101 9
b11100000100000110101000000000100 )
b11100000100000110101000000000100 2
b11100000100000110101000000000100 n
b11100000100000110101000000000100 P"
b10010 !
b10010 &
b10010 +
b10010 b
b10010 G"
b10010 I"
b10010 N"
b11100 l
b11100 4"
b11100 5"
b100000 j
b100000 1"
b100000 B"
b11100 k
b11100 -"
b11100 /"
b11100 2"
b11000 (
b11000 0
b11000 m
b11000 ."
b11000 6"
b11000 O"
1$
#85
0$
#90
b0 O
b11111110 o
b11111110 '"
b11111110 3"
b11111110 F"
0u
0S
0P
0y
b0 R
b111111110 '
b111111110 .
b111111110 g
b111111110 A"
b111111110 M"
b111111110 f
b111111110 ~
b111111110 ("
b111111110 @"
b0 c
b0 z
b0 $"
b11111110 q
b11111110 ""
b11111110 &"
b0 d
b0 %"
b0 K"
b0 C
b0 7
b0 @
b0 G
b0 s
b0 |
0w
b11000100 #
b11000100 *
b11000100 6
b11000100 r
b11000100 }
b11000100 ?"
b11000100 L"
b1 3
b1 >
b1 Y
b1 `
b1 )"
15
11
0[
14
b0 !
b0 &
b0 +
b0 b
b0 G"
b0 I"
b0 N"
b11000100 x
b11000100 e
b11000100 {
b11000100 H"
b0 ?
b0 E
b0 ]
b0 8
b0 A
b0 \
b0 _
b0 t
b11110001 ^
b0 p
b0 !"
b0 +"
b0 J"
b0 h
b0 >"
b0 D"
b101 i
b101 :"
b101 C"
b1 V
b11101 U
b110 W
b110101010110000000000000 *"
b110 E"
b110 <"
b0 ;"
b101 7"
b11100101110101010110 9
b11100101110101010110000000000000 )
b11100101110101010110000000000000 2
b11100101110101010110000000000000 n
b11100101110101010110000000000000 P"
b100000 l
b100000 4"
b100000 5"
b100100 j
b100100 1"
b100100 B"
b100000 k
b100000 -"
b100000 /"
b100000 2"
b11100 (
b11100 0
b11100 m
b11100 ."
b11100 6"
b11100 O"
1$
#95
0$
#100
b1 o
b1 '"
b1 3"
b1 F"
b1 d
b1 %"
b1 K"
b1 q
b1 ""
b1 &"
b11111111 !
b11111111 &
b11111111 +
b11111111 b
b11111111 G"
b11111111 I"
b11111111 N"
b1 p
b1 !"
b1 +"
b1 J"
b1 h
b1 >"
b1 D"
b111 W
b110101010111000000000001 *"
b111 E"
b111 <"
b1 ;"
b11100101110101010111 9
b11100101110101010111000000000001 )
b11100101110101010111000000000001 2
b11100101110101010111000000000001 n
b11100101110101010111000000000001 P"
b100100 l
b100100 4"
b100100 5"
b101000 j
b101000 1"
b101000 B"
b100100 k
b100100 -"
b100100 /"
b100100 2"
b100000 (
b100000 0
b100000 m
b100000 ."
b100000 6"
b100000 O"
1$
#105
0$
#110
1S
1P
b11 C
bx '
bx .
bx g
bx A"
bx M"
b11111101 f
b11111101 ~
b11111101 ("
b11111101 @"
b11 ?
b11 E
b11 ]
b1 8
b1 A
b1 \
b1 _
b1 t
b1 c
b1 z
b1 $"
b11111101 o
b11111101 '"
b11111101 3"
b11111101 F"
b11111101 #
b11111101 *
b11111101 6
b11111101 r
b11111101 }
b11111101 ?"
b11111101 L"
b0 3
b0 >
b0 Y
b0 `
b0 )"
05
01
1[
04
b1 d
b1 %"
b1 K"
b0 q
b0 ""
b0 &"
b1 !
b1 &
b1 +
b1 b
b1 G"
b1 I"
b1 N"
b11111101 x
b11111110 e
b11111110 {
b11111110 H"
b10010 ^
b111 p
b111 !"
b111 +"
b111 J"
b111 h
b111 >"
b111 D"
b110 i
b110 :"
b110 C"
b0 V
b101 U
b0 W
b10101100000000000000111 *"
b0 E"
b0 <"
b111 ;"
b110 7"
b11100000010101100000 9
b11100000010101100000000000000111 )
b11100000010101100000000000000111 2
b11100000010101100000000000000111 n
b11100000010101100000000000000111 P"
b101000 l
b101000 4"
b101000 5"
b101100 j
b101100 1"
b101100 B"
b101000 k
b101000 -"
b101000 /"
b101000 2"
b100100 (
b100100 0
b100100 m
b100100 ."
b100100 6"
b100100 O"
1$
#115
0$
#120
b10 O
b0 o
b0 '"
b0 3"
b0 F"
1u
b11111111111111111111111111010000 c
b11111111111111111111111111010000 z
b11111111111111111111111111010000 $"
0y
b1 R
b0 f
b0 ~
b0 ("
b0 @"
19"
0S
0P
b11111111111111111111111111010000 d
b11111111111111111111111111010000 %"
b11111111111111111111111111010000 K"
b110 7
b110 @
b110 G
b110 s
b110 |
1w
b0 #
b0 *
b0 6
b0 r
b0 }
b0 ?"
b0 L"
b1 -
b1 ;
b1 X
b1 a
b10 3
b10 >
b10 Y
b10 `
b10 )"
15
0:
1Z
0[
1<
b0 C
0,
b10010 !
b10010 &
b10010 +
b10010 b
b10010 G"
b10010 I"
b10010 N"
b100000000000000000000000000000000 x
b110000 e
b110000 {
b110000 H"
b0 ?
b0 E
b0 ]
b0 8
b0 A
b0 \
b0 _
b0 t
b1101000100 ^
0F
b11111111111111111111111111010000 p
b11111111111111111111111111010000 !"
b11111111111111111111111111010000 +"
b11111111111111111111111111010000 J"
b100 h
b100 >"
b100 D"
b1111 i
b1111 :"
b1111 C"
b10 V
b101111 U
b1111 W
b1011 B
b1011 H
b111111111111111111110100 *"
b1111 E"
b1111 <"
b100 ;"
b1111 7"
b10111010111111111111 9
b10111010111111111111111111110100 )
b10111010111111111111111111110100 2
b10111010111111111111111111110100 n
b10111010111111111111111111110100 P"
b101100 l
b101100 4"
b101100 5"
b110000 j
b110000 1"
b110000 B"
b101100 k
b101100 -"
b101100 /"
b101100 2"
b101000 (
b101000 0
b101000 m
b101000 ."
b101000 6"
b101000 O"
1$
#125
0$
#130
b0 O
0u
b100 c
b100 z
b100 $"
1/
b100 d
b100 %"
b100 K"
b11111111 !
b11111111 &
b11111111 +
b11111111 b
b11111111 G"
b11111111 I"
b11111111 N"
1F
b111000 o
b111000 '"
b111000 3"
b111000 F"
b100 p
b100 !"
b100 +"
b100 J"
b1 h
b1 >"
b1 D"
b100000 U
b0 W
b1100 B
b1100 H
b0 R
b111000 f
b111000 ~
b111000 ("
b111000 @"
b1 *"
b0 E"
b0 <"
b1 ;"
b0 7"
b11001010000000000000 9
b0 7
b0 @
b0 G
b0 s
b0 |
0w
b111000 #
b111000 *
b111000 6
b111000 r
b111000 }
b111000 ?"
b111000 L"
b11001010000000000000000000000001 )
b11001010000000000000000000000001 2
b11001010000000000000000000000001 n
b11001010000000000000000000000001 P"
b111000 x
b110100 e
b110100 {
b110100 H"
b111000 l
b111000 4"
b111000 5"
b110100 j
b110100 1"
b110100 B"
b110000 k
b110000 -"
b110000 /"
b110000 2"
b101100 (
b101100 0
b101100 m
b101100 ."
b101100 6"
b101100 O"
1$
#135
0$
#140
b0 R
b0 7
b0 @
b0 G
b0 s
b0 |
0y
b100 i
b100 :"
b100 C"
0/
09"
1="
1"
0<
b1101110 c
b1101110 z
b1101110 $"
b10 -
b10 ;
b10 X
b10 a
b1 3
b1 >
b1 Y
b1 `
b1 )"
11
1=
0Z
b111100 l
b111100 4"
b111100 5"
b1101110 d
b1101110 %"
b1101110 K"
b11111110 !
b11111110 &
b11111110 +
b11111110 b
b11111110 G"
b11111110 I"
b11111110 N"
b10011101000 ^
bx o
bx '"
bx 3"
bx F"
b1101110 p
b1101110 !"
b1101110 +"
b1101110 J"
b110 h
b110 >"
b110 D"
b1 V
b11000 U
b110 W
b1110 B
b1110 H
bx f
bx ~
bx ("
bx @"
b100001000110000001101110 *"
b110 E"
b110 <"
b1110 ;"
b100 7"
b11100101100001000110 9
b10000000 #
b10000000 *
b10000000 6
b10000000 r
b10000000 }
b10000000 ?"
b10000000 L"
b11100101100001000110000001101110 )
b11100101100001000110000001101110 2
b11100101100001000110000001101110 n
b11100101100001000110000001101110 P"
b10000000 x
b10010 e
b10010 {
b10010 H"
b1000000 j
b1000000 1"
b1000000 B"
b111100 k
b111100 -"
b111100 /"
b111100 2"
b111000 (
b111000 0
b111000 m
b111000 ."
b111000 6"
b111000 O"
1$
#145
0$
#150
xv
x/
xS
xP
bx O
x<
bx C
xu
xy
bx R
0="
x,
bx ?
bx E
bx ]
bx 8
bx A
bx \
bx _
bx t
bx c
bx z
bx $"
bx 7
bx @
bx G
bx s
bx |
xw
bx #
bx *
bx 6
bx r
bx }
bx ?"
bx L"
b0 -
b0 ;
b0 X
b0 a
b0 3
b0 >
b0 Y
b0 `
b0 )"
05
01
1:
0=
1[
0"
bx d
bx %"
bx K"
bx !
bx &
bx +
bx b
bx G"
bx I"
bx N"
bx x
bx e
bx {
bx H"
b10010 ^
xF
b0xxxxxxxx p
b0xxxxxxxx !"
b0xxxxxxxx +"
b0xxxxxxxx J"
bx h
bx >"
bx D"
bx i
bx :"
bx C"
bx V
bx U
bx W
bx B
bx H
bx *"
bx E"
bx <"
bx ;"
bx 7"
bx 9
bx o
bx '"
bx 3"
bx F"
bx )
bx 2
bx n
bx P"
bx l
bx 4"
bx 5"
bx f
bx ~
bx ("
bx @"
b1000100 j
b1000100 1"
b1000100 B"
b1000000 k
b1000000 -"
b1000000 /"
b1000000 2"
b111100 (
b111100 0
b111100 m
b111100 ."
b111100 6"
b111100 O"
bx '
bx .
bx g
bx A"
bx M"
1$
